Etnobotánica práctica
…
<br>

```r
starwars %>% 
* group_by(species) %>%
  summarise(mean(height))
```

```
## `summarise()` ungrouping output (override with `.groups` argument)
```

```
## # A tibble: 38 x 2
##    species   `mean(height)`
##    <chr>              <dbl>
##  1 Aleena               79 
##  2 Besalisk            198 
##  3 Cerean              198 
##  4 Chagrian            196 
##  5 Clawdite            168 
##  6 Droid                NA 
##  7 Dug                 112 
##  8 Ewok                 88 
##  9 Geonosian           183 
## 10 Gungan              209.
## # … with 28 more rows
```
…
.panelset[

.panel[.panel-name[Manejo de los datos]

```r
d_leu %>% 
  mutate(vai_tam = `Ancho máximo de la vaina` * `Longitud máxima de la vaina`,
         sem_tam = `Ancho máximo de la semilla` * `Grosor máximo de las semilla`) %>% 
  transmute(Obs, Manejo, vai_tam, sem_tam) -> anova_leu

anova_leu
```

```
## # A tibble: 48 x 4
##    Obs   Manejo   vai_tam sem_tam
##    <chr> <chr>      <dbl>   <dbl>
##  1 T1    Tolerada    33.0   0.175
##  2 T2    Tolerada    19.8   0.166
##  3 T3    Tolerada    41.5   0.197
##  4 T4    Tolerada    31.7   0.144
##  5 T5    Tolerada    19.3   0.112
##  6 T6    Tolerada    19.2   0.141
##  7 T7    Tolerada    22.0   0.177
##  8 T8    Tolerada    30.6   0.168
##  9 T9    Tolerada    36.7   0.141
## 10 T10   Tolerada    26.5   0.133
## # … with 38 more rows
```
…
```
## Parsed with column specification:
## cols(
##   .default = col_double(),
##   ID = col_character()
## )
```

```
## See spec(...) for full column specifications.
```

```
## # A tibble: 34 x 7
##    ID    sie_clim_mes sie_clim_dif tem_mes_dif per_vie_dif per_pla_dif pre_tdif
##    <chr>        <dbl>        <dbl>       <dbl>       <dbl>       <dbl>    <dbl>
##  1 SG1              1           NA           0           1           0        0
##  2 SG2              0            0           0           0           0        0
##  3 SG3              0            1           0           0          NA        0
##  4 SG4              1            1           1           1           0        1
##  5 SG5              0            0           1           0           0        0
##  6 SG6              0            0           0           1           0        0
##  7 SG7              0            1           0           1           0        0
##  8 SG8              0            0           0           0           1        0
##  9 SG9              1            0           0           1           0        1
## 10 SG10            NA            1           0           0           0        1
## # … with 24 more rows
```
---

<br>

### Manejo de los datos

```
## # A tibble: 34 x 8
##    ID    sie_clim_mes sie_clim_dif tem_mes_dif per_vie_dif per_pla_dif pre_tdif
##    <chr>        <dbl>        <dbl>       <dbl>       <dbl>       <dbl>    <dbl>
##  1 SG1              1            0           0           1           0        0
##  2 SG2              0            0           0           0           0        0
##  3 SG3              0            1           0           0           0        0
##  4 SG4              1            1           1           1           0        1
##  5 SG5              0            0           1           0           0        0
##  6 SG6              0            0           0           1           0        0
##  7 SG7              0            1           0           1           0        0
##  8 SG8              0            0           0           0           1        0
##  9 SG9              1            0           0           1           0        1
## 10 SG10             0            1           0           0           0        1
## # … with 24 more rows, and 1 more variable: cambio <dbl>
```
…
